<?xml version="1.0" encoding="UTF-8" standalone="no"?>
<svg width="32px" height="32px" viewBox="0 0 32 32" version="1.1" xmlns="http://www.w3.org/2000/svg" xmlns:xlink="http://www.w3.org/1999/xlink" xmlns:sketch="http://www.bohemiancoding.com/sketch/ns">
    <!-- Generator: Sketch 3.5.2 (25235) - http://www.bohemiancoding.com/sketch -->
    <title>Custom Preset</title>
    <desc>Created with Sketch.</desc>
    <defs></defs>
    <g id="Page-1" stroke="none" stroke-width="1" fill="none" fill-rule="evenodd" sketch:type="MSPage">
        <g id="Custom-Preset" sketch:type="MSArtboardGroup" fill="#3C8A3F">
            <g id="pound" sketch:type="MSLayerGroup" transform="translate(1.000000, 1.000000)">
                <g id="Page-1" sketch:type="MSShapeGroup">
                    <g id="pound">
                        <g id="layer1" transform="translate(0.000000, 0.063152)">
                            <g id="g5224" transform="translate(0.000005, 0.013580)">
                                <path d="M5.9999978,17.814357 L5.9999978,11.9331711 L0.148520207,11.9331711 L0.148520207,5.93317328 L5.9999978,5.93317328 L5.9999978,0.0222772196 L11.9999956,0.0222772196 L11.9999956,5.93317328 L17.9999934,5.93317328 L17.9999934,0.0222879126 L23.9999912,0.0222879126 L23.9999912,5.93317328 L29.8514796,5.93317328 L29.8514796,11.9331711 L23.9999912,11.9331711 L23.9999912,17.814357 L29.8514688,17.814357 L29.8514688,23.8143548 L23.9999912,23.8143548 L23.9999912,29.7252473 L17.9999934,29.7252473 L17.9999934,23.8143548 L11.9999956,23.8143548 L11.9999956,29.7252366 L5.9999978,29.7252366 L5.9999978,23.8143548 L0.148509407,23.8143548 L0.148509407,17.814357 L5.9999978,17.814357 Z M11.9999956,17.814357 L11.9999956,11.9331711 L17.9999934,11.9331711 L17.9999934,17.814357 L11.9999956,17.814357 Z" id="rect5212"></path>
                            </g>
                        </g>
                    </g>
                </g>
            </g>
        </g>
    </g>
</svg>